Data Manipulation (dplyr) - Lithium Theme
…
What was the most popular name in a single year? In what year was Wendy the most popular?

select

Extract columns by name. See ?select and select helpers in the cheat sheet.

mutate

Create new columns, see ?mutate.

Challenge 3

Create a new table babynames2 with a new percent column perc = 100*prop, then drop the column prop.

## # A tibble: 1,825,433 × 5
##     year   sex      name     n     perc
##    <dbl> <chr>     <chr> <int>    <dbl>
## 1   1880     F      Mary  7065 7.238359
## 2   1880     F      Anna  2604 2.667896
## 3   1880     F      Emma  2003 2.052149
## 4   1880     F Elizabeth  1939 1.986579
## 5   1880     F    Minnie  1746 1.788843
## 6   1880     F  Margaret  1578 1.616720
## 7   1880     F       Ida  1472 1.508119
## 8   1880     F     Alice  1414 1.448696
## 9   1880     F    Bertha  1320 1.352390
## 10  1880     F     Sarah  1288 1.319605
## # ... with 1,825,423 more rows
…
